[
 {
  "pk": 1, 
  "model": "LEOGoals.vignette", 
  "fields": {
   "image": "", 
   "description": "c", 
   "title": "BD"
  }
 }, 
 {
  "pk": 2, 
  "model": "LEOGoals.vignette", 
  "fields": {
   "image": "", 
   "description": "a", 
   "title": "Action"
  }
 }, 
 {
  "pk": 1, 
  "model": "taggit.tag", 
  "fields": {
   "name": "bd", 
   "slug": "bd"
  }
 }, 
 {
  "pk": 2, 
  "model": "taggit.tag", 
  "fields": {
   "name": "dessin", 
   "slug": "dessin"
  }
 }, 
 {
  "pk": 3, 
  "model": "taggit.tag", 
  "fields": {
   "name": "animation", 
   "slug": "animation"
  }
 }, 
 {
  "pk": 4, 
  "model": "taggit.tag", 
  "fields": {
   "name": "tintin", 
   "slug": "tintin"
  }
 }, 
 {
  "pk": 5, 
  "model": "taggit.tag", 
  "fields": {
   "name": "milou", 
   "slug": "milou"
  }
 }, 
 {
  "pk": 6, 
  "model": "taggit.tag", 
  "fields": {
   "name": "action", 
   "slug": "action"
  }
 }, 
 {
  "pk": 7, 
  "model": "taggit.tag", 
  "fields": {
   "name": "bruce", 
   "slug": "bruce"
  }
 }, 
 {
  "pk": 8, 
  "model": "taggit.tag", 
  "fields": {
   "name": "bruce willis", 
   "slug": "bruce-willis"
  }
 }, 
 {
  "pk": 9, 
  "model": "taggit.tag", 
  "fields": {
   "name": "vilence", 
   "slug": "vilence"
  }
 }, 
 {
  "pk": 1, 
  "model": "taggit.taggeditem", 
  "fields": {
   "tag": 1, 
   "content_type": 12, 
   "object_id": 1
  }
 }, 
 {
  "pk": 2, 
  "model": "taggit.taggeditem", 
  "fields": {
   "tag": 2, 
   "content_type": 12, 
   "object_id": 1
  }
 }, 
 {
  "pk": 3, 
  "model": "taggit.taggeditem", 
  "fields": {
   "tag": 3, 
   "content_type": 12, 
   "object_id": 1
  }
 }, 
 {
  "pk": 4, 
  "model": "taggit.taggeditem", 
  "fields": {
   "tag": 4, 
   "content_type": 12, 
   "object_id": 1
  }
 }, 
 {
  "pk": 5, 
  "model": "taggit.taggeditem", 
  "fields": {
   "tag": 5, 
   "content_type": 12, 
   "object_id": 1
  }
 }, 
 {
  "pk": 6, 
  "model": "taggit.taggeditem", 
  "fields": {
   "tag": 8, 
   "content_type": 12, 
   "object_id": 2
  }
 }, 
 {
  "pk": 7, 
  "model": "taggit.taggeditem", 
  "fields": {
   "tag": 9, 
   "content_type": 12, 
   "object_id": 2
  }
 }, 
 {
  "pk": 8, 
  "model": "taggit.taggeditem", 
  "fields": {
   "tag": 6, 
   "content_type": 12, 
   "object_id": 2
  }
 }, 
 {
  "pk": 9, 
  "model": "taggit.taggeditem", 
  "fields": {
   "tag": 7, 
   "content_type": 12, 
   "object_id": 2
  }
 }
]